%YAML 1.1
%TAG !u! tag:unity3d.com,2011:
--- !u!74 &7400000
AnimationClip:
  m_ObjectHideFlags: 0
  m_PrefabParentObject: {fileID: 0}
  m_PrefabInternal: {fileID: 0}
  m_Name: animButtonReturn1
  serializedVersion: 6
  m_Legacy: 0
  m_Compressed: 0
  m_UseHighQualityCurve: 1
  m_RotationCurves: []
  m_CompressedRotationCurves: []
  m_EulerCurves: []
  m_PositionCurves: []
  m_ScaleCurves:
  - curve:
      serializedVersion: 2
      m_Curve:
      - time: 0
        value: {x: 11.420758, y: 11.420778, z: 11.420778}
        inSlope: {x: -16.918352, y: -16.918386, z: -16.918386}
        outSlope: {x: -16.918352, y: -16.918386, z: -16.918386}
        tangentMode: 0
      - time: 0.5
        value: {x: 2.9615824, y: 2.9615853, z: 2.9615853}
        inSlope: {x: -16.918352, y: -16.918386, z: -16.918386}
        outSlope: {x: -16.918352, y: -16.918386, z: -16.918386}
        tangentMode: 0
      m_PreInfinity: 2
      m_PostInfinity: 2
      m_RotationOrder: 4
    path: 
  - curve:
      serializedVersion: 2
      m_Curve:
      - time: 0.083333336
        value: {x: 0.02784848, y: 0.02784848, z: 0.02784848}
        inSlope: {x: 0.028141549, y: 0.028141549, z: -0.1670909}
        outSlope: {x: 0.028141549, y: 0.028141549, z: -0.1670909}
        tangentMode: 0
      - time: 0.25
        value: {x: 0.032538738, y: 0.032538738, z: 0}
        inSlope: {x: 0.06927833, y: 0.06927833, z: 0.036739595}
        outSlope: {x: 0.06927833, y: 0.06927833, z: 0.036739595}
        tangentMode: 0
      - time: 0.5
        value: {x: 0.060142517, y: 0.060142517, z: 0.06014252}
        inSlope: {x: 0.110415116, y: 0.110415116, z: 0.24057008}
        outSlope: {x: 0.110415116, y: 0.110415116, z: 0.24057008}
        tangentMode: 0
      m_PreInfinity: 2
      m_PostInfinity: 2
      m_RotationOrder: 4
    path: formationsCourtes/ListFormationCourt/ListB/Image (1)/Text (1)
  - curve:
      serializedVersion: 2
      m_Curve:
      - time: 0.083333336
        value: {x: 0.02784848, y: 0.02784848, z: 0.02784848}
        inSlope: {x: 0.028141571, y: 0.028141571, z: -0.1670909}
        outSlope: {x: 0.028141571, y: 0.028141571, z: -0.1670909}
        tangentMode: 0
      - time: 0.25
        value: {x: 0.03253874, y: 0.03253874, z: 0}
        inSlope: {x: 0.17969342, y: 0.17969343, z: 0.27730963}
        outSlope: {x: 0.17969342, y: 0.17969343, z: 0.27730963}
        tangentMode: 0
      - time: 0.33333334
        value: {x: 0.060142517, y: 0.06014252, z: 0.06014252}
        inSlope: {x: 0.33124527, y: 0.3312453, z: 0.72171015}
        outSlope: {x: 0.33124527, y: 0.3312453, z: 0.72171015}
        tangentMode: 0
      m_PreInfinity: 2
      m_PostInfinity: 2
      m_RotationOrder: 4
    path: formationsCourtes/ListFormationCourt/ListB/Image (1)/Text
  m_FloatCurves:
  - curve:
      serializedVersion: 2
      m_Curve:
      - time: 0
        value: 4820
        inSlope: -7362
        outSlope: -7362
        tangentMode: 10
      - time: 0.5
        value: 1139
        inSlope: -7362
        outSlope: -7362
        tangentMode: 10
      m_PreInfinity: 2
      m_PostInfinity: 2
      m_RotationOrder: 4
    attribute: m_AnchoredPosition.x
    path: 
    classID: 224
    script: {fileID: 0}
  - curve:
      serializedVersion: 2
      m_Curve:
      - time: 0
        value: -1658
        inSlope: 2188
        outSlope: 2188
        tangentMode: 10
      - time: 0.5
        value: -564
        inSlope: 2188
        outSlope: 2188
        tangentMode: 10
      m_PreInfinity: 2
      m_PostInfinity: 2
      m_RotationOrder: 4
    attribute: m_AnchoredPosition.y
    path: 
    classID: 224
    script: {fileID: 0}
  - curve:
      serializedVersion: 2
      m_Curve:
      - time: 0.5
        value: 1
        inSlope: Infinity
        outSlope: Infinity
        tangentMode: 31
      m_PreInfinity: 2
      m_PostInfinity: 2
      m_RotationOrder: 4
    attribute: grow
    path: formationsCourtes
    classID: 114
    script: {fileID: 11500000, guid: c525e3f5ce4bc8d49b22b63a71f574bc, type: 3}
  - curve:
      serializedVersion: 2
      m_Curve:
      - time: 0
        value: 0.49264705
        inSlope: 0
        outSlope: 0
        tangentMode: 10
      - time: 0.083333336
        value: 0.49264705
        inSlope: 0.30882356
        outSlope: 0.30882356
        tangentMode: 10
      - time: 0.5
        value: 0.75
        inSlope: 0.6176471
        outSlope: 0.6176471
        tangentMode: 10
      m_PreInfinity: 2
      m_PostInfinity: 2
      m_RotationOrder: 4
    attribute: m_Color.r
    path: formationsCourtes
    classID: 114
    script: {fileID: -765806418, guid: f5f67c52d1564df4a8936ccd202a3bd8, type: 3}
  - curve:
      serializedVersion: 2
      m_Curve:
      - time: 0
        value: 0.49264705
        inSlope: 0
        outSlope: 0
        tangentMode: 10
      - time: 0.083333336
        value: 0.49264705
        inSlope: -0.16102943
        outSlope: -0.16102943
        tangentMode: 10
      - time: 0.5
        value: 0.35845587
        inSlope: -0.32205886
        outSlope: -0.32205886
        tangentMode: 10
      m_PreInfinity: 2
      m_PostInfinity: 2
      m_RotationOrder: 4
    attribute: m_Color.g
    path: formationsCourtes
    classID: 114
    script: {fileID: -765806418, guid: f5f67c52d1564df4a8936ccd202a3bd8, type: 3}
  - curve:
      serializedVersion: 2
      m_Curve:
      - time: 0
        value: 0.49264705
        inSlope: 0
        outSlope: 0
        tangentMode: 10
      - time: 0.083333336
        value: 0.49264705
        inSlope: 0.1403246
        outSlope: 0.1403246
        tangentMode: 10
      - time: 0.5
        value: 0.6095842
        inSlope: 0.2806492
        outSlope: 0.2806492
        tangentMode: 10
      m_PreInfinity: 2
      m_PostInfinity: 2
      m_RotationOrder: 4
    attribute: m_Color.b
    path: formationsCourtes
    classID: 114
    script: {fileID: -765806418, guid: f5f67c52d1564df4a8936ccd202a3bd8, type: 3}
  - curve:
      serializedVersion: 2
      m_Curve:
      - time: 0
        value: 0.647
        inSlope: 0
        outSlope: 0
        tangentMode: 10
      - time: 0.083333336
        value: 0.647
        inSlope: 0.4236
        outSlope: 0.4236
        tangentMode: 10
      - time: 0.5
        value: 1
        inSlope: 0.8472
        outSlope: 0.8472
        tangentMode: 10
      m_PreInfinity: 2
      m_PostInfinity: 2
      m_RotationOrder: 4
    attribute: m_Color.a
    path: formationsCourtes
    classID: 114
    script: {fileID: -765806418, guid: f5f67c52d1564df4a8936ccd202a3bd8, type: 3}
  - curve:
      serializedVersion: 2
      m_Curve:
      - time: 0.5
        value: 1
        inSlope: Infinity
        outSlope: Infinity
        tangentMode: 31
      m_PreInfinity: 2
      m_PostInfinity: 2
      m_RotationOrder: 4
    attribute: m_IsActive
    path: formationsCourtes/ListFormationCourt
    classID: 1
    script: {fileID: 0}
  - curve:
      serializedVersion: 2
      m_Curve:
      - time: 0.5
        value: 0
        inSlope: Infinity
        outSlope: Infinity
        tangentMode: 31
      m_PreInfinity: 2
      m_PostInfinity: 2
      m_RotationOrder: 4
    attribute: m_IsActive
    path: formationsCourtes/Text
    classID: 1
    script: {fileID: 0}
  - curve:
      serializedVersion: 2
      m_Curve:
      - time: 0
        value: 1
        inSlope: Infinity
        outSlope: Infinity
        tangentMode: 31
      - time: 0.25
        value: 0
        inSlope: Infinity
        outSlope: Infinity
        tangentMode: 31
      - time: 0.5
        value: 0
        inSlope: Infinity
        outSlope: Infinity
        tangentMode: 31
      m_PreInfinity: 2
      m_PostInfinity: 2
      m_RotationOrder: 4
    attribute: m_IsActive
    path: formationsCourtes/ListFormationCourt/ListB/Image (1)/Text (1)
    classID: 1
    script: {fileID: 0}
  - curve:
      serializedVersion: 2
      m_Curve:
      - time: 0.083333336
        value: -7.8
        inSlope: 51.000004
        outSlope: 51.000004
        tangentMode: 10
      - time: 0.25
        value: 0.7
        inSlope: 24.100002
        outSlope: 24.100002
        tangentMode: 10
      - time: 0.5
        value: 0
        inSlope: -2.8
        outSlope: -2.8
        tangentMode: 10
      m_PreInfinity: 2
      m_PostInfinity: 2
      m_RotationOrder: 4
    attribute: m_AnchoredPosition.x
    path: formationsCourtes/ListFormationCourt/ListB/Image (1)/Text (1)
    classID: 224
    script: {fileID: 0}
  - curve:
      serializedVersion: 2
      m_Curve:
      - time: 0.083333336
        value: 19.98
        inSlope: 0.120002754
        outSlope: 0.120002754
        tangentMode: 10
      - time: 0.25
        value: 20
        inSlope: -39.94
        outSlope: -39.94
        tangentMode: 10
      - time: 0.5
        value: 0
        inSlope: -80
        outSlope: -80
        tangentMode: 10
      m_PreInfinity: 2
      m_PostInfinity: 2
      m_RotationOrder: 4
    attribute: m_AnchoredPosition.y
    path: formationsCourtes/ListFormationCourt/ListB/Image (1)/Text (1)
    classID: 224
    script: {fileID: 0}
  - curve:
      serializedVersion: 2
      m_Curve:
      - time: 0
        value: 0
        inSlope: Infinity
        outSlope: Infinity
        tangentMode: 31
      - time: 0.25
        value: 1
        inSlope: Infinity
        outSlope: Infinity
        tangentMode: 31
      - time: 0.5
        value: 1
        inSlope: Infinity
        outSlope: Infinity
        tangentMode: 31
      m_PreInfinity: 2
      m_PostInfinity: 2
      m_RotationOrder: 4
    attribute: m_IsActive
    path: formationsCourtes/ListFormationCourt/ListB/Image (1)/Text
    classID: 1
    script: {fileID: 0}
  - curve:
      serializedVersion: 2
      m_Curve:
      - time: 0.083333336
        value: -25.3
        inSlope: 27.600039
        outSlope: 27.600039
        tangentMode: 10
      - time: 0.25
        value: -20.699993
        inSlope: 137.99997
        outSlope: 137.99997
        tangentMode: 10
      - time: 0.33333334
        value: 0
        inSlope: 248.39989
        outSlope: 248.39989
        tangentMode: 10
      m_PreInfinity: 2
      m_PostInfinity: 2
      m_RotationOrder: 4
    attribute: m_AnchoredPosition.x
    path: formationsCourtes/ListFormationCourt/ListB/Image (1)/Text
    classID: 224
    script: {fileID: 0}
  - curve:
      serializedVersion: 2
      m_Curve:
      - time: 0.083333336
        value: 15.9
        inSlope: 1.2000047
        outSlope: 1.2000047
        tangentMode: 10
      - time: 0.25
        value: 16.1
        inSlope: -95.999985
        outSlope: -95.999985
        tangentMode: 10
      - time: 0.33333334
        value: 0
        inSlope: -193.19998
        outSlope: -193.19998
        tangentMode: 10
      m_PreInfinity: 2
      m_PostInfinity: 2
      m_RotationOrder: 4
    attribute: m_AnchoredPosition.y
    path: formationsCourtes/ListFormationCourt/ListB/Image (1)/Text
    classID: 224
    script: {fileID: 0}
  - curve:
      serializedVersion: 2
      m_Curve:
      - time: 0
        value: 1
        inSlope: Infinity
        outSlope: Infinity
        tangentMode: 31
      - time: 0.5
        value: 0
        inSlope: Infinity
        outSlope: Infinity
        tangentMode: 31
      m_PreInfinity: 2
      m_PostInfinity: 2
      m_RotationOrder: 4
    attribute: grow
    path: formationsCourtes/ListFormationCourt/ListB/Image (1)
    classID: 114
    script: {fileID: 11500000, guid: c525e3f5ce4bc8d49b22b63a71f574bc, type: 3}
  m_PPtrCurves: []
  m_SampleRate: 60
  m_WrapMode: 0
  m_Bounds:
    m_Center: {x: 0, y: 0, z: 0}
    m_Extent: {x: 0, y: 0, z: 0}
  m_ClipBindingConstant:
    genericBindings:
    - path: 0
      attribute: 3
      script: {fileID: 0}
      classID: 4
      customType: 0
      isPPtrCurve: 0
    - path: 104437556
      attribute: 3
      script: {fileID: 0}
      classID: 4
      customType: 0
      isPPtrCurve: 0
    - path: 1552930233
      attribute: 3
      script: {fileID: 0}
      classID: 4
      customType: 0
      isPPtrCurve: 0
    - path: 0
      attribute: 1460864421
      script: {fileID: 0}
      classID: 224
      customType: 0
      isPPtrCurve: 0
    - path: 0
      attribute: 538195251
      script: {fileID: 0}
      classID: 224
      customType: 0
      isPPtrCurve: 0
    - path: 2289125175
      attribute: 4240719727
      script: {fileID: 11500000, guid: c525e3f5ce4bc8d49b22b63a71f574bc, type: 3}
      classID: 114
      customType: 0
      isPPtrCurve: 0
    - path: 2289125175
      attribute: 2526845255
      script: {fileID: -765806418, guid: f5f67c52d1564df4a8936ccd202a3bd8, type: 3}
      classID: 114
      customType: 0
      isPPtrCurve: 0
    - path: 2289125175
      attribute: 4215373228
      script: {fileID: -765806418, guid: f5f67c52d1564df4a8936ccd202a3bd8, type: 3}
      classID: 114
      customType: 0
      isPPtrCurve: 0
    - path: 2289125175
      attribute: 2334886179
      script: {fileID: -765806418, guid: f5f67c52d1564df4a8936ccd202a3bd8, type: 3}
      classID: 114
      customType: 0
      isPPtrCurve: 0
    - path: 2289125175
      attribute: 304273561
      script: {fileID: -765806418, guid: f5f67c52d1564df4a8936ccd202a3bd8, type: 3}
      classID: 114
      customType: 0
      isPPtrCurve: 0
    - path: 760685197
      attribute: 2086281974
      script: {fileID: 0}
      classID: 1
      customType: 0
      isPPtrCurve: 0
    - path: 2363853851
      attribute: 2086281974
      script: {fileID: 0}
      classID: 1
      customType: 0
      isPPtrCurve: 0
    - path: 104437556
      attribute: 2086281974
      script: {fileID: 0}
      classID: 1
      customType: 0
      isPPtrCurve: 0
    - path: 104437556
      attribute: 1460864421
      script: {fileID: 0}
      classID: 224
      customType: 0
      isPPtrCurve: 0
    - path: 104437556
      attribute: 538195251
      script: {fileID: 0}
      classID: 224
      customType: 0
      isPPtrCurve: 0
    - path: 1552930233
      attribute: 2086281974
      script: {fileID: 0}
      classID: 1
      customType: 0
      isPPtrCurve: 0
    - path: 1552930233
      attribute: 1460864421
      script: {fileID: 0}
      classID: 224
      customType: 0
      isPPtrCurve: 0
    - path: 1552930233
      attribute: 538195251
      script: {fileID: 0}
      classID: 224
      customType: 0
      isPPtrCurve: 0
    - path: 1228237348
      attribute: 4240719727
      script: {fileID: 11500000, guid: c525e3f5ce4bc8d49b22b63a71f574bc, type: 3}
      classID: 114
      customType: 0
      isPPtrCurve: 0
    pptrCurveMapping: []
  m_AnimationClipSettings:
    serializedVersion: 2
    m_AdditiveReferencePoseClip: {fileID: 0}
    m_AdditiveReferencePoseTime: 0
    m_StartTime: 0
    m_StopTime: 0.5
    m_OrientationOffsetY: 0
    m_Level: 0
    m_CycleOffset: 0
    m_HasAdditiveReferencePose: 0
    m_LoopTime: 0
    m_LoopBlend: 0
    m_LoopBlendOrientation: 0
    m_LoopBlendPositionY: 0
    m_LoopBlendPositionXZ: 0
    m_KeepOriginalOrientation: 0
    m_KeepOriginalPositionY: 1
    m_KeepOriginalPositionXZ: 0
    m_HeightFromFeet: 0
    m_Mirror: 0
  m_EditorCurves:
  - curve:
      serializedVersion: 2
      m_Curve:
      - time: 0
        value: 4820
        inSlope: -7362
        outSlope: -7362
        tangentMode: 10
      - time: 0.5
        value: 1139
        inSlope: -7362
        outSlope: -7362
        tangentMode: 10
      m_PreInfinity: 2
      m_PostInfinity: 2
      m_RotationOrder: 4
    attribute: m_AnchoredPosition.x
    path: 
    classID: 224
    script: {fileID: 0}
  - curve:
      serializedVersion: 2
      m_Curve:
      - time: 0
        value: -1658
        inSlope: 2188
        outSlope: 2188
        tangentMode: 10
      - time: 0.5
        value: -564
        inSlope: 2188
        outSlope: 2188
        tangentMode: 10
      m_PreInfinity: 2
      m_PostInfinity: 2
      m_RotationOrder: 4
    attribute: m_AnchoredPosition.y
    path: 
    classID: 224
    script: {fileID: 0}
  - curve:
      serializedVersion: 2
      m_Curve:
      - time: 0
        value: 11.420758
        inSlope: -16.918352
        outSlope: -16.918352
        tangentMode: 10
      - time: 0.5
        value: 2.9615824
        inSlope: -16.918352
        outSlope: -16.918352
        tangentMode: 10
      m_PreInfinity: 2
      m_PostInfinity: 2
      m_RotationOrder: 4
    attribute: m_LocalScale.x
    path: 
    classID: 224
    script: {fileID: 0}
  - curve:
      serializedVersion: 2
      m_Curve:
      - time: 0
        value: 11.420778
        inSlope: -16.918386
        outSlope: -16.918386
        tangentMode: 10
      - time: 0.5
        value: 2.9615853
        inSlope: -16.918386
        outSlope: -16.918386
        tangentMode: 10
      m_PreInfinity: 2
      m_PostInfinity: 2
      m_RotationOrder: 4
    attribute: m_LocalScale.y
    path: 
    classID: 224
    script: {fileID: 0}
  - curve:
      serializedVersion: 2
      m_Curve:
      - time: 0
        value: 11.420778
        inSlope: -16.918386
        outSlope: -16.918386
        tangentMode: 10
      - time: 0.5
        value: 2.9615853
        inSlope: -16.918386
        outSlope: -16.918386
        tangentMode: 10
      m_PreInfinity: 2
      m_PostInfinity: 2
      m_RotationOrder: 4
    attribute: m_LocalScale.z
    path: 
    classID: 224
    script: {fileID: 0}
  - curve:
      serializedVersion: 2
      m_Curve:
      - time: 0.5
        value: 1
        inSlope: Infinity
        outSlope: Infinity
        tangentMode: 31
      m_PreInfinity: 2
      m_PostInfinity: 2
      m_RotationOrder: 4
    attribute: grow
    path: formationsCourtes
    classID: 114
    script: {fileID: 11500000, guid: c525e3f5ce4bc8d49b22b63a71f574bc, type: 3}
  - curve:
      serializedVersion: 2
      m_Curve:
      - time: 0
        value: 0.49264705
        inSlope: 0
        outSlope: 0
        tangentMode: 10
      - time: 0.083333336
        value: 0.49264705
        inSlope: 0.30882356
        outSlope: 0.30882356
        tangentMode: 10
      - time: 0.5
        value: 0.75
        inSlope: 0.6176471
        outSlope: 0.6176471
        tangentMode: 10
      m_PreInfinity: 2
      m_PostInfinity: 2
      m_RotationOrder: 4
    attribute: m_Color.r
    path: formationsCourtes
    classID: 114
    script: {fileID: -765806418, guid: f5f67c52d1564df4a8936ccd202a3bd8, type: 3}
  - curve:
      serializedVersion: 2
      m_Curve:
      - time: 0
        value: 0.49264705
        inSlope: 0
        outSlope: 0
        tangentMode: 10
      - time: 0.083333336
        value: 0.49264705
        inSlope: -0.16102943
        outSlope: -0.16102943
        tangentMode: 10
      - time: 0.5
        value: 0.35845587
        inSlope: -0.32205886
        outSlope: -0.32205886
        tangentMode: 10
      m_PreInfinity: 2
      m_PostInfinity: 2
      m_RotationOrder: 4
    attribute: m_Color.g
    path: formationsCourtes
    classID: 114
    script: {fileID: -765806418, guid: f5f67c52d1564df4a8936ccd202a3bd8, type: 3}
  - curve:
      serializedVersion: 2
      m_Curve:
      - time: 0
        value: 0.49264705
        inSlope: 0
        outSlope: 0
        tangentMode: 10
      - time: 0.083333336
        value: 0.49264705
        inSlope: 0.1403246
        outSlope: 0.1403246
        tangentMode: 10
      - time: 0.5
        value: 0.6095842
        inSlope: 0.2806492
        outSlope: 0.2806492
        tangentMode: 10
      m_PreInfinity: 2
      m_PostInfinity: 2
      m_RotationOrder: 4
    attribute: m_Color.b
    path: formationsCourtes
    classID: 114
    script: {fileID: -765806418, guid: f5f67c52d1564df4a8936ccd202a3bd8, type: 3}
  - curve:
      serializedVersion: 2
      m_Curve:
      - time: 0
        value: 0.647
        inSlope: 0
        outSlope: 0
        tangentMode: 10
      - time: 0.083333336
        value: 0.647
        inSlope: 0.4236
        outSlope: 0.4236
        tangentMode: 10
      - time: 0.5
        value: 1
        inSlope: 0.8472
        outSlope: 0.8472
        tangentMode: 10
      m_PreInfinity: 2
      m_PostInfinity: 2
      m_RotationOrder: 4
    attribute: m_Color.a
    path: formationsCourtes
    classID: 114
    script: {fileID: -765806418, guid: f5f67c52d1564df4a8936ccd202a3bd8, type: 3}
  - curve:
      serializedVersion: 2
      m_Curve:
      - time: 0.5
        value: 1
        inSlope: Infinity
        outSlope: Infinity
        tangentMode: 31
      m_PreInfinity: 2
      m_PostInfinity: 2
      m_RotationOrder: 4
    attribute: m_IsActive
    path: formationsCourtes/ListFormationCourt
    classID: 1
    script: {fileID: 0}
  - curve:
      serializedVersion: 2
      m_Curve:
      - time: 0.5
        value: 0
        inSlope: Infinity
        outSlope: Infinity
        tangentMode: 31
      m_PreInfinity: 2
      m_PostInfinity: 2
      m_RotationOrder: 4
    attribute: m_IsActive
    path: formationsCourtes/Text
    classID: 1
    script: {fileID: 0}
  - curve:
      serializedVersion: 2
      m_Curve:
      - time: 0
        value: 1
        inSlope: Infinity
        outSlope: Infinity
        tangentMode: 31
      - time: 0.25
        value: 0
        inSlope: Infinity
        outSlope: Infinity
        tangentMode: 31
      - time: 0.5
        value: 0
        inSlope: Infinity
        outSlope: Infinity
        tangentMode: 31
      m_PreInfinity: 2
      m_PostInfinity: 2
      m_RotationOrder: 4
    attribute: m_IsActive
    path: formationsCourtes/ListFormationCourt/ListB/Image (1)/Text (1)
    classID: 1
    script: {fileID: 0}
  - curve:
      serializedVersion: 2
      m_Curve:
      - time: 0.083333336
        value: -7.8
        inSlope: 51.000004
        outSlope: 51.000004
        tangentMode: 10
      - time: 0.25
        value: 0.7
        inSlope: 24.100002
        outSlope: 24.100002
        tangentMode: 10
      - time: 0.5
        value: 0
        inSlope: -2.8
        outSlope: -2.8
        tangentMode: 10
      m_PreInfinity: 2
      m_PostInfinity: 2
      m_RotationOrder: 4
    attribute: m_AnchoredPosition.x
    path: formationsCourtes/ListFormationCourt/ListB/Image (1)/Text (1)
    classID: 224
    script: {fileID: 0}
  - curve:
      serializedVersion: 2
      m_Curve:
      - time: 0.083333336
        value: 19.98
        inSlope: 0.120002754
        outSlope: 0.120002754
        tangentMode: 10
      - time: 0.25
        value: 20
        inSlope: -39.94
        outSlope: -39.94
        tangentMode: 10
      - time: 0.5
        value: 0
        inSlope: -80
        outSlope: -80
        tangentMode: 10
      m_PreInfinity: 2
      m_PostInfinity: 2
      m_RotationOrder: 4
    attribute: m_AnchoredPosition.y
    path: formationsCourtes/ListFormationCourt/ListB/Image (1)/Text (1)
    classID: 224
    script: {fileID: 0}
  - curve:
      serializedVersion: 2
      m_Curve:
      - time: 0.083333336
        value: 0.02784848
        inSlope: 0.028141549
        outSlope: 0.028141549
        tangentMode: 10
      - time: 0.25
        value: 0.032538738
        inSlope: 0.06927833
        outSlope: 0.06927833
        tangentMode: 10
      - time: 0.5
        value: 0.060142517
        inSlope: 0.110415116
        outSlope: 0.110415116
        tangentMode: 10
      m_PreInfinity: 2
      m_PostInfinity: 2
      m_RotationOrder: 4
    attribute: m_LocalScale.x
    path: formationsCourtes/ListFormationCourt/ListB/Image (1)/Text (1)
    classID: 224
    script: {fileID: 0}
  - curve:
      serializedVersion: 2
      m_Curve:
      - time: 0.083333336
        value: 0.02784848
        inSlope: 0.028141549
        outSlope: 0.028141549
        tangentMode: 10
      - time: 0.25
        value: 0.032538738
        inSlope: 0.06927833
        outSlope: 0.06927833
        tangentMode: 10
      - time: 0.5
        value: 0.060142517
        inSlope: 0.110415116
        outSlope: 0.110415116
        tangentMode: 10
      m_PreInfinity: 2
      m_PostInfinity: 2
      m_RotationOrder: 4
    attribute: m_LocalScale.y
    path: formationsCourtes/ListFormationCourt/ListB/Image (1)/Text (1)
    classID: 224
    script: {fileID: 0}
  - curve:
      serializedVersion: 2
      m_Curve:
      - time: 0.083333336
        value: 0.02784848
        inSlope: -0.1670909
        outSlope: -0.1670909
        tangentMode: 10
      - time: 0.25
        value: 0
        inSlope: 0.036739595
        outSlope: 0.036739595
        tangentMode: 10
      - time: 0.5
        value: 0.06014252
        inSlope: 0.24057008
        outSlope: 0.24057008
        tangentMode: 10
      m_PreInfinity: 2
      m_PostInfinity: 2
      m_RotationOrder: 4
    attribute: m_LocalScale.z
    path: formationsCourtes/ListFormationCourt/ListB/Image (1)/Text (1)
    classID: 224
    script: {fileID: 0}
  - curve:
      serializedVersion: 2
      m_Curve:
      - time: 0
        value: 0
        inSlope: Infinity
        outSlope: Infinity
        tangentMode: 31
      - time: 0.25
        value: 1
        inSlope: Infinity
        outSlope: Infinity
        tangentMode: 31
      - time: 0.5
        value: 1
        inSlope: Infinity
        outSlope: Infinity
        tangentMode: 31
      m_PreInfinity: 2
      m_PostInfinity: 2
      m_RotationOrder: 4
    attribute: m_IsActive
    path: formationsCourtes/ListFormationCourt/ListB/Image (1)/Text
    classID: 1
    script: {fileID: 0}
  - curve:
      serializedVersion: 2
      m_Curve:
      - time: 0.083333336
        value: -25.3
        inSlope: 27.600039
        outSlope: 27.600039
        tangentMode: 10
      - time: 0.25
        value: -20.699993
        inSlope: 137.99997
        outSlope: 137.99997
        tangentMode: 10
      - time: 0.33333334
        value: 0
        inSlope: 248.39989
        outSlope: 248.39989
        tangentMode: 10
      m_PreInfinity: 2
      m_PostInfinity: 2
      m_RotationOrder: 4
    attribute: m_AnchoredPosition.x
    path: formationsCourtes/ListFormationCourt/ListB/Image (1)/Text
    classID: 224
    script: {fileID: 0}
  - curve:
      serializedVersion: 2
      m_Curve:
      - time: 0.083333336
        value: 15.9
        inSlope: 1.2000047
        outSlope: 1.2000047
        tangentMode: 10
      - time: 0.25
        value: 16.1
        inSlope: -95.999985
        outSlope: -95.999985
        tangentMode: 10
      - time: 0.33333334
        value: 0
        inSlope: -193.19998
        outSlope: -193.19998
        tangentMode: 10
      m_PreInfinity: 2
      m_PostInfinity: 2
      m_RotationOrder: 4
    attribute: m_AnchoredPosition.y
    path: formationsCourtes/ListFormationCourt/ListB/Image (1)/Text
    classID: 224
    script: {fileID: 0}
  - curve:
      serializedVersion: 2
      m_Curve:
      - time: 0.083333336
        value: 0.02784848
        inSlope: 0.028141571
        outSlope: 0.028141571
        tangentMode: 10
      - time: 0.25
        value: 0.03253874
        inSlope: 0.17969342
        outSlope: 0.17969342
        tangentMode: 10
      - time: 0.33333334
        value: 0.060142517
        inSlope: 0.33124527
        outSlope: 0.33124527
        tangentMode: 10
      m_PreInfinity: 2
      m_PostInfinity: 2
      m_RotationOrder: 4
    attribute: m_LocalScale.x
    path: formationsCourtes/ListFormationCourt/ListB/Image (1)/Text
    classID: 224
    script: {fileID: 0}
  - curve:
      serializedVersion: 2
      m_Curve:
      - time: 0.083333336
        value: 0.02784848
        inSlope: 0.028141571
        outSlope: 0.028141571
        tangentMode: 10
      - time: 0.25
        value: 0.03253874
        inSlope: 0.17969343
        outSlope: 0.17969343
        tangentMode: 10
      - time: 0.33333334
        value: 0.06014252
        inSlope: 0.3312453
        outSlope: 0.3312453
        tangentMode: 10
      m_PreInfinity: 2
      m_PostInfinity: 2
      m_RotationOrder: 4
    attribute: m_LocalScale.y
    path: formationsCourtes/ListFormationCourt/ListB/Image (1)/Text
    classID: 224
    script: {fileID: 0}
  - curve:
      serializedVersion: 2
      m_Curve:
      - time: 0.083333336
        value: 0.02784848
        inSlope: -0.1670909
        outSlope: -0.1670909
        tangentMode: 10
      - time: 0.25
        value: 0
        inSlope: 0.27730963
        outSlope: 0.27730963
        tangentMode: 10
      - time: 0.33333334
        value: 0.06014252
        inSlope: 0.72171015
        outSlope: 0.72171015
        tangentMode: 10
      m_PreInfinity: 2
      m_PostInfinity: 2
      m_RotationOrder: 4
    attribute: m_LocalScale.z
    path: formationsCourtes/ListFormationCourt/ListB/Image (1)/Text
    classID: 224
    script: {fileID: 0}
  - curve:
      serializedVersion: 2
      m_Curve:
      - time: 0
        value: 1
        inSlope: Infinity
        outSlope: Infinity
        tangentMode: 31
      - time: 0.5
        value: 0
        inSlope: Infinity
        outSlope: Infinity
        tangentMode: 31
      m_PreInfinity: 2
      m_PostInfinity: 2
      m_RotationOrder: 4
    attribute: grow
    path: formationsCourtes/ListFormationCourt/ListB/Image (1)
    classID: 114
    script: {fileID: 11500000, guid: c525e3f5ce4bc8d49b22b63a71f574bc, type: 3}
  m_EulerEditorCurves: []
  m_HasGenericRootTransform: 0
  m_HasMotionFloatCurves: 0
  m_GenerateMotionCurves: 0
  m_Events: []
